<?xml version="1.0" encoding="utf-8"?>
<!-- Generator: Adobe Illustrator 16.0.0, SVG Export Plug-In . SVG Version: 6.00 Build 0)  -->
<!DOCTYPE svg PUBLIC "-//W3C//DTD SVG 1.1//EN" "http://www.w3.org/Graphics/SVG/1.1/DTD/svg11.dtd">
<svg id="dolllr_icon"  viewBox="21.698 90 568.599 612" >
<path  d="M165.08,164.436l16.597,7.242c-11.513,7.049-16.708,13.942-15.394,20.506
	c1.352,6.782,7.551,12.629,18.443,17.385c10.033,4.38,21.854,6.751,36.144,7.25c14.09,0.488,35.827-3.475,64.63-11.79
	c7.156-2.07,12.765-3.275,16.66-3.576c3.813-0.3,6.885,0.128,9.678,1.351c1.922,0.838,7.783,3.391-6.943,9.823
	c-9.564,4.174-19.471,5.893-29.434,5.109c-7.883-0.614-15.866,0.839-20.399,3.721l-8.85,5.628c-3.868,2.458-4.652,5.601-2.101,8.365
	c2.546,2.764,8.104,4.783,14.791,5.383c21.854,1.962,43.425-0.554,64.149-7.442l22.402,9.782c7.963,3.475,20.859,3.475,28.818,0.008
	c7.955-3.476,7.955-9.109,0-12.582l-23.184-10.122c10.184-6.469,15.539-13.008,15.914-19.477
	c0.449-7.567-5.664-14.172-18.162-19.629c-8.92-3.895-19.096-6.306-30.225-7.162c-11.131-0.864-21.682-0.382-31.34,1.43
	c-9.529,1.791-24.032,5.405-43.017,10.718c-8.263,2.289-13.867,3.456-16.675,3.473c-2.684,0.014-5.089-0.411-6.953-1.227
	c-6.615-2.881-1.057-6.525,4.77-9.068c7.234-3.157,14.953-4.648,22.937-4.438c8.005,0.212,15.555-1.657,19.268-4.756l5.133-4.282
	c3.248-2.708,3.074-5.955-0.453-8.599c-3.524-2.64-9.913-4.308-16.913-4.412c-15.193-0.218-29.846,1.813-44.589,6.181l-16.891-7.372
	c-7.96-3.475-20.86-3.475-28.819,0C157.125,155.331,157.125,160.963,165.08,164.436z"/>
<path  d="M515.618,254.285c1.348-5.609,2.039-11.322,2.039-17.112V218.87c0-36.571-27.307-70.011-76.885-94.156
	C394.807,102.328,334.045,90,269.678,90S144.55,102.328,98.584,124.714c-49.58,24.146-76.885,57.585-76.885,94.156v18.303
	c0,36.064,26.567,69.076,74.847,93.14c-1.339,5.582-2.204,12.537-2.204,17.029v3.34c-46.892,23.965-72.644,56.522-72.644,92.035
	v18.305c0,24.659,12.432,47.892,35.722,67.815c-3.151,8.422-4.793,17.11-4.793,25.99v18.303c0,36.571,27.304,70.011,76.884,94.156
	C175.477,689.672,236.238,702,300.605,702c64.366,0,125.13-12.328,171.095-34.714c49.58-24.146,76.885-57.585,76.885-94.156v-18.303
	c0-24.655-12.422-47.884-35.701-67.806c3.148-8.424,4.771-17.12,4.771-26.002v-3.34c46.891-23.965,72.643-56.521,72.643-92.037
	V347.34C590.299,311.318,563.793,278.342,515.618,254.285z M56.354,203.381c7.182-18.26,26.744-35.99,56.061-50.267
	c41.742-20.329,97.593-31.524,157.263-31.524c59.668,0,115.521,11.195,157.264,31.524c29.316,14.277,48.877,32.008,56.061,50.267
	c-25.373,44.134-113.527,76.314-213.326,76.314C169.879,279.695,81.726,247.517,56.354,203.381z M56.354,427.23
	c5.839-14.847,19.903-29.329,40.702-41.904c8.013,28.792,33.647,54.739,74.172,74.474c45.966,22.386,106.727,34.714,171.095,34.714
	c6.291,0,12.537-0.152,18.75-0.386c-28.102,6.043-59.133,9.417-91.394,9.417C169.881,503.545,81.726,471.364,56.354,427.23z
	 M513.93,539.339c-25.373,44.134-113.525,76.314-213.324,76.314c-86.695,0-164.555-24.298-200.149-59.606
	c45.74,21.82,105.711,33.843,169.221,33.843c64.368,0,125.129-12.327,171.094-34.714c23.814-11.6,42.477-25.346,55.453-40.551
	C504.602,522.559,510.606,530.889,513.93,539.339z M342.321,408.169c-87.134,0-165.386-24.532-200.733-60.132
	c38.171,11.71,82.198,18.006,128.09,18.006c64.367,0,125.129-12.328,171.094-34.712c27.834-13.556,48.645-30.04,61.549-48.362
	c27.783,14.034,46.371,31.206,53.326,48.886C530.274,375.986,442.12,408.169,342.321,408.169z"/>
</svg>
